C:\Users\Joy_Wang\IdeaProjects\work-common\src\test\java\com\cy\work\common\cache\WkCommonCacheTest.java
C:\Users\Joy_Wang\IdeaProjects\work-common\src\test\java\com\cy\work\common\utils\WkStringUtilsTest.java
C:\Users\Joy_Wang\IdeaProjects\work-common\src\test\java\com\cy\work\common\cache\WkUserCacheTest.java
C:\Users\Joy_Wang\IdeaProjects\work-common\src\test\java\com\cy\work\common\utils\WkAttachUtilsTest.java
C:\Users\Joy_Wang\IdeaProjects\work-common\src\test\java\com\cy\work\common\utils\WkJsonUtilsTest.java
C:\Users\Joy_Wang\IdeaProjects\work-common\src\test\java\com\cy\work\common\cache\WkOrgCacheTest.java
C:\Users\Joy_Wang\IdeaProjects\work-common\src\test\java\com\cy\work\common\utils\WkBase64UtilsTest.java
C:\Users\Joy_Wang\IdeaProjects\work-common\src\test\java\com\cy\work\common\utils\WkWebPageUtilsTest.java
C:\Users\Joy_Wang\IdeaProjects\work-common\src\test\java\com\cy\work\common\utils\WkVerUtilTest.java
C:\Users\Joy_Wang\IdeaProjects\work-common\src\test\java\com\cy\work\common\utils\WkCommonContentUtilsTest.java
C:\Users\Joy_Wang\IdeaProjects\work-common\src\test\java\com\cy\work\common\utils\WkStrFormatterTest.java
C:\Users\Joy_Wang\IdeaProjects\work-common\src\test\java\com\cy\work\common\utils\WkUserUtilsTest.java
